Is The Job Market ‘Cooked’ ?
…
posting_clean_no_id <- posting_clean %>% 
  select(-job_id, -company_id, -original_listed_time, -expiry, -closed_time)

#View(posting_clean_no_id)

duplicated_posting_clean_no_id <- posting_clean_no_id[duplicated(posting_clean_no_id) | duplicated(posting_clean_no_id, fromLast = TRUE), ]
duplicated_posting_clean_no_id

## # A tibble: 10,045 × 17
##    company_name  title      max_salary med_salary min_salary pay_period location
##    <chr>         <chr>           <dbl>      <dbl>      <dbl> <chr>      <chr>   
##  1 City of Tempe Deputy Ci…   274206           NA   205398   YEARLY     Tempe, …
##  2 SKF Group     Technician       NA           NA       NA   <NA>       Plymout…
##  3 SKF Group     Heat Trea…       27.9         NA       19.6 HOURLY     Muskego…
##  4 SKF Group     Quality E…       NA           NA       NA   <NA>       Lansdal…
##  5 SKF Group     Maintenan…       NA           NA       NA   <NA>       Sumter,…
##  6 SKF Group     Manufactu…       NA           NA       NA   <NA>       Dexter,…
##  7 SKF Group     Regional …       NA           NA       NA   <NA>       Cincinn…
##  8 SKF Group     Machining…       NA           NA       NA   <NA>       Muskego…
##  9 SKF Group     CNC Machi…       NA           NA       NA   <NA>       Hanover…
## 10 SKF Group     Maintenan…       NA           NA       NA   <NA>       Ladson,…
## # ℹ 10,035 more rows
## # ℹ 10 more variables: formatted_work_type <chr>, applies <dbl>,
## #   remote_allowed <dbl>, application_type <chr>,
## #   formatted_experience_level <chr>, sponsored <dbl>, work_type <chr>,
## #   currency <chr>, zip_code <chr>, fips <chr>
…
Since NA pay takes quite a large proportion, we can assume that jobs
that don’t have a specified pay period don’t include min/med/max
salaries. We check this

posting_clean_pay_null <- posting_clean %>% 
  filter(is.na(pay_period))
posting_clean_pay_null

## # A tibble: 87,776 × 22
##       job_id company_name      title max_salary med_salary min_salary pay_period
##        <dbl> <chr>             <chr>      <dbl>      <dbl>      <dbl> <chr>     
##  1   1218575 Children's Nebra… Resp…         NA         NA         NA <NA>      
##  2   9615617 Glastender, Inc.  Insi…         NA         NA         NA <NA>      
##  3  11009123 PGAV Destinations Proj…         NA         NA         NA <NA>      
##  4  56482768 <NA>              Appa…         NA         NA         NA <NA>      
##  5  56924323 <NA>              Stru…         NA         NA         NA <NA>      
##  6  69333422 Staffing Theory   Seni…         NA         NA         NA <NA>      
##  7  83789755 OsteoStrong       Oste…         NA         NA         NA <NA>      
##  8 111513530 United Methodist… Cont…         NA         NA         NA <NA>      
##  9 115639136 Shannon Waltchack Cont…         NA         NA         NA <NA>      
## 10 117675818 Premier Family C… Phys…         NA         NA         NA <NA>      
## # ℹ 87,766 more rows
## # ℹ 15 more variables: location <chr>, company_id <dbl>,
## #   formatted_work_type <chr>, original_listed_time <dbl>, expiry <dbl>,
## #   closed_time <dbl>, applies <dbl>, remote_allowed <dbl>,
## #   application_type <chr>, formatted_experience_level <chr>, sponsored <dbl>,
## #   work_type <chr>, currency <fct>, zip_code <chr>, fips <chr>
…
#temporary_test2 <- read_csv("industry_keywords_by_field.csv")

#temporary_test3 <- temporary_test %>% 
#  semi_join(temporary_test2, by = c("word" = "Keyword"))

#tempurary_test4 <- temporary_test3 %>%  
#  inner_join(temporary_test2, by = c("word" = "Keyword"))

Mapping out individual keywords

posting_clean[grepl("Defense and space", posting_clean$industries_name, ignore.case = TRUE), ]

## # A tibble: 1,446 × 23
##        job_id company_name title industries_name norm_max_salary norm_med_salary
##         <dbl> <chr>        <chr> <chr>                     <dbl>           <dbl>
##  1 3803052628 Insight Glo… Flig… Defense and Sp…          170000          155000
##  2 3815847830 Northrop Gr… Staf… Defense and Sp…          241400          201200
##  3 3850493836 Crown Point… Audi… Defense and Sp…              NA              NA
##  4 3884433891 Becker Wrig… Hill… Appliances, El…          125000          112500
##  5 3884436032 ITRS Recrui… Cost… Aviation and A…              NA              NA
##  6 3884436140 North Star … FPGA… Defense and Sp…              NA              NA
##  7 3884436258 AirBorn Inc. Seni… Defense and Sp…              NA              NA
##  8 3884437283 Pegasus Ste… Qual… Defense and Sp…              NA              NA
##  9 3884437415 JW Industri… Staf… Aviation and A…          160000          140000
## 10 3884438364 The Davis C… Exec… Defense and Sp…              NA              29
## # ℹ 1,436 more rows
## # ℹ 17 more variables: norm_min_salary <dbl>, pay_period <chr>, city <chr>,
## #   state <chr>, zip_code <chr>, fips <chr>, company_id <dbl>,
## #   formatted_work_type <chr>, original_listed_time <dttm>, expiry <dttm>,
## #   closed_time <dttm>, applies <dbl>, remote_allowed <dbl>,
## #   application_type <chr>, formatted_experience_level <chr>, sponsored <dbl>,
## #   work_type <chr>
…
posting_clean[grepl("Technology", posting_clean$industries_name, ignore.case = TRUE), ]

## # A tibble: 5,327 × 24
##        job_id company_name title industries_name norm_max_salary norm_med_salary
##         <dbl> <chr>        <chr> <chr>                     <dbl>           <dbl>
##  1  175485704 GOYT         Soft… Technology, In…              NA              NA
##  2 2269442456 navXcom      Comp… Space Research…              NA              NA
##  3 2558399667 I.T. Soluti… Vali… Pharmaceutical…          145600          135200
##  4 2974397965 Lynx Systems Mark… Information Te…           85000           80000
##  5 3736684097 Cira Tek, I… Prog… Information Te…              NA              NA
##  6 3739478140 Merakris Th… Dist… Biotechnology …              NA              NA
##  7 3811513595 Cage Riot    Vide… Technology, In…              NA           41600
##  8 3813645405 Tenazx Inc   Data… Technology, In…              NA              NA
##  9 3829184899 SanLuna LLC  Soci… Technology, In…              NA              NA
## 10 3835806869 vMOX         Head… Telecommunicat…          200000          175000
## # ℹ 5,317 more rows
## # ℹ 18 more variables: norm_min_salary <dbl>, pay_period <chr>, city <chr>,
## #   state <chr>, zip_code <chr>, fips <chr>, company_id <dbl>,
## #   formatted_work_type <chr>, original_listed_time <dttm>, expiry <dttm>,
## #   closed_time <dttm>, applies <dbl>, remote_allowed <dbl>,
## #   application_type <chr>, formatted_experience_level <chr>, sponsored <dbl>,
## #   work_type <chr>, state_full <chr>
…
